ID=14, survived: false, class=3," name=""Andersson  Mr. Anders Johan""", sex=m, age=39, sibsp=1, parch=5, fare=31, embarked:S, score,2.82288961232049,Full score,87.421472063484,total score,247.817290195337
ID=6, survived: false, class=3," name=""Moran  Mr. James""", sex=m, age=0, sibsp=0, parch=0, fare=8, embarked:Q, score,3.51816586407941,Full score,34.3920622170565,total score,119.565313344553
ID=46, survived: false, class=3," name=""Rogers  Mr. William John""", sex=m, age=0, sibsp=0, parch=0, fare=8, embarked:S, score,3.51816586407941,Full score,310.279296414088,total score,834.288858195539
ID=18, survived: true, class=2," name=""Williams  Mr. Charles Eugene""", sex=m, age=0, sibsp=0, parch=0, fare=13, embarked:S, score,3.87429161887438,Full score,99.9028167144098,total score,300.040430778683
ID=47, survived: false, class=3," name=""Lennon  Mr. Denis""", sex=m, age=0, sibsp=1, parch=0, fare=15, embarked:Q, score,5.37774982705089,Full score,324.901546587038,total score,839.66660802259
ID=36, survived: false, class=1," name=""Holverson  Mr. Alexander Oskar""", sex=m, age=42, sibsp=1, parch=0, fare=52, embarked:S, score,5.65392337301789,Full score,209.938050514949,total score,645.811149151867
ID=8, survived: false, class=3," name=""Palsson  Master. Gosta Leonard""", sex=m, age=2, sibsp=3, parch=1, fare=21, embarked:S, score,6.3414727546968,Full score,56.4635315365346,total score,137.493844025075
ID=19, survived: false, class=3," name=""Vander Planke  Mrs. Julius (Emelia Maria Vandemoortele)""", sex=f, age=31, sibsp=1, parch=0, fare=18, embarked:S, score,7.21881455935429,Full score,112.684002155055,total score,307.259245338038
ID=17, survived: false, class=3," name=""Rice  Master. Eugene""", sex=m, age=2, sibsp=4, parch=1, fare=29, embarked:Q, score,7.41274794698962,Full score,116.028525095535,total score,296.166139159809
ID=42, survived: false, class=2," name=""Turpin  Mrs. William John Robert (Dorothy Ann Wonnacott)""", sex=f, age=27, sibsp=1, parch=0, fare=21, embarked:S, score,7.71491647629605,Full score,249.622806298805,total score,743.003218853165
ID=50, survived: false, class=3," name=""Arnold-Franchi  Mrs. Josef (Josefine Franchi)""", sex=f, age=18, sibsp=1, parch=0, fare=17, embarked:S, score,8.78197812720358,Full score,356.28015071698,total score,891.244060515812
ID=34, survived: false, class=2," name=""Wheadon  Mr. Edward H""", sex=m, age=66, sibsp=0, parch=0, fare=10, embarked:S, score,9.29821124907568,Full score,189.318309325151,total score,626.430890341666
ID=9, survived: true, class=3," name=""Johnson  Mrs. Oscar W (Elisabeth Vilhelmina Berg)""", sex=f, age=27, sibsp=0, parch=2, fare=11, embarked:S, score,9.64332464010982,Full score,46.1068561766445,total score,147.137168665185
ID=32, survived: true, class=1," name=""Spencer  Mrs. William Augustus (Marie Eugenie)""", sex=f, age=0, sibsp=1, parch=0, fare=146, embarked:C, score,10.7891772221017,Full score,167.138492262644,total score,585.654650781008
ID=49, survived: false, class=3," name=""Samaan  Mr. Youssef""", sex=m, age=0, sibsp=2, parch=0, fare=21, embarked:C, score,11.3174460544362,Full score,345.062128844184,total score,882.462082388609
ID=7, survived: false, class=1," name=""McCarthy  Mr. Timothy J""", sex=m, age=54, sibsp=0, parch=0, fare=51, embarked:S, score,11.5870579258251,Full score,42.8050042912314,total score,131.152371270378
ID=27, survived: false, class=3," name=""Emir  Mr. Farred Chehab""", sex=m, age=0, sibsp=0, parch=0, fare=7, embarked:C, score,11.7964087494655,Full score,151.087319745849,total score,497.171412230435
ID=30, survived: false, class=3," name=""Todoroff  Mr. Lalio""", sex=m, age=0, sibsp=0, parch=0, fare=7, embarked:S, score,11.7964087494655,Full score,171.637787424969,total score,559.577001174479
ID=43, survived: false, class=3," name=""Kraeff  Mr. Theodor""", sex=m, age=0, sibsp=0, parch=0, fare=7, embarked:C, score,11.7964087494655,Full score,257.826397549339,total score,754.799627602631
ID=37, survived: true, class=3," name=""Mamee  Mr. Hanna""", sex=m, age=0, sibsp=0, parch=0, fare=7, embarked:C, score,11.7964087494655,Full score,201.734459264415,total score,657.607557901333
ID=41, survived: false, class=3," name=""Ahlin  Mrs. Johan (Johanna Persdotter Larsson)""", sex=f, age=40, sibsp=1, parch=0, fare=9, embarked:S, score,11.8408487915122,Full score,237.337722775101,total score,735.288302376869
ID=39, survived: false, class=3," name=""Vander Planke  Miss. Augusta Maria""", sex=f, age=18, sibsp=2, parch=0, fare=18, embarked:S, score,12.3380284815773,Full score,212.536567573502,total score,686.805449592246
ID=15, survived: false, class=3," name=""Vestrom  Miss. Hulda Amanda Adolfina""", sex=f, age=14, sibsp=0, parch=0, fare=7, embarked:S, score,12.4581500192208,Full score,94.9633220442633,total score,260.275440214558
ID=21, survived: false, class=2," name=""Fynney  Mr. Joseph J""", sex=m, age=35, sibsp=0, parch=0, fare=26, embarked:S, score,13.488166817195,Full score,130.673863649443,total score,352.225440466815
ID=1, survived: false, class=3," name=""Braund  Mr. Owen Harris""", sex=m, age=22, sibsp=1, parch=0, fare=7, embarked:S, score,13.6224491084189,Full score,6.3775508915811,total score,13.6224491084189
ID=35, survived: false, class=1," name=""Meyer  Mr. Edgar Joseph""", sex=m, age=28, sibsp=1, parch=0, fare=82, embarked:C, score,13.7263354371835,Full score,195.591973887967,total score,640.157225778849
ID=31, survived: false, class=1," name=""Uruchurtu  Don. Manuel E""", sex=m, age=40, sibsp=0, parch=0, fare=27, embarked:C, score,15.2884723844267,Full score,176.349315040542,total score,574.865473558906
ID=22, survived: true, class=2," name=""Beesley  Mr. Lawrence""", sex=m, age=34, sibsp=0, parch=0, fare=13, embarked:S, score,16.5746384268229,Full score,127.248502076266,total score,368.800078893638
ID=13, survived: false, class=3," name=""Saundercock  Mr. William Henry""", sex=m, age=20, sibsp=0, parch=0, fare=8, embarked:S, score,16.8598632093357,Full score,70.2443616758045,total score,244.994400583016
ID=38, survived: false, class=3," name=""Cann  Mr. Ernest Charles""", sex=m, age=21, sibsp=0, parch=0, fare=8, embarked:S, score,16.8598632093357,Full score,204.874596055079,total score,674.467421110668
ID=3, survived: true, class=3," name=""Heikkinen  Miss. Laina""", sex=f, age=26, sibsp=0, parch=0, fare=7, embarked:S, score,18.4558755185987,Full score,18.0906238291037,total score,65.3355220459415
ID=28, survived: false, class=1," name=""Fortune  Mr. Charles Alexander""", sex=m, age=19, sibsp=3, parch=2, fare=263, embarked:S, score,19.1311518829963,Full score,151.956167862852,total score,516.302564113431
ID=10, survived: true, class=2," name=""Nasser  Mrs. Nicholas (Adele Achem)""", sex=f, age=14, sibsp=1, parch=0, fare=30, embarked:C, score,19.4129601638562,Full score,45.5198163405007,total score,166.550128829041
ID=24, survived: true, class=1," name=""Sloper  Mr. William Thompson""", sex=m, age=28, sibsp=0, parch=0, fare=35, embarked:S, score,22.2786895164309,Full score,142.705029869019,total score,424.256606686391
ID=11, survived: true, class=3," name=""Sandstrom  Miss. Marguerite Rut""", sex=f, age=4, sibsp=1, parch=1, fare=16, embarked:S, score,25.1215876858472,Full score,50.6414040263479,total score,191.671716514888
ID=4, survived: true, class=1," name=""Futrelle  Mrs. Jacques Heath (Lily May Peel)""", sex=f, age=35, sibsp=1, parch=0, fare=53, embarked:S, score,25.2656148432822,Full score,23.3562386723859,total score,90.6011368892237
ID=5, survived: false, class=3," name=""Allen  Mr. William Henry""", sex=m, age=35, sibsp=0, parch=0, fare=8, embarked:S, score,25.44601059125,Full score,17.9102280811359,total score,116.047147480474
ID=16, survived: true, class=2," name=""Hewlett  Mrs. (Mary D Kingcome) """, sex=f, age=55, sibsp=0, parch=0, fare=16, embarked:S, score,28.4779509982618,Full score,103.441273042525,total score,288.753391212819
ID=25, survived: false, class=3," name=""Palsson  Miss. Torborg Danira""", sex=f, age=8, sibsp=3, parch=1, fare=21, embarked:S, score,30.4698490841416,Full score,132.235180784877,total score,454.726455770533
ID=26, survived: true, class=3," name=""Asplund  Mrs. Carl Oscar (Selma Augusta Emilia Johansson)""", sex=f, age=38, sibsp=1, parch=5, fare=31, embarked:S, score,30.6485477104367,Full score,142.883728495314,total score,485.37500348097
ID=20, survived: true, class=3," name=""Masselmani  Mrs. Fatima""", sex=f, age=0, sibsp=0, parch=0, fare=7, embarked:C, score,31.4780283115824,Full score,124.162030466638,total score,338.73727364962
ID=29, survived: true, class=3," name=""O'Dwyer  Miss. Ellen """"Nellie""""""", sex=f, age=0, sibsp=0, parch=0, fare=7, embarked:Q, score,31.4780283115824,Full score,163.434196174435,total score,547.780592425014
ID=33, survived: true, class=3," name=""Glynn  Miss. Mary Agatha""", sex=f, age=0, sibsp=0, parch=0, fare=7, embarked:Q, score,31.4780283115824,Full score,178.616520574226,total score,617.13267909259
ID=48, survived: true, class=3," name=""O'Driscoll  Miss. Bridget""", sex=f, age=0, sibsp=0, parch=0, fare=7, embarked:Q, score,31.4780283115824,Full score,336.37957489862,total score,871.144636334172
ID=23, survived: true, class=3," name=""McGowan  Miss. Anna """"Annie""""""", sex=f, age=15, sibsp=0, parch=0, fare=8, embarked:Q, score,33.1778382763223,Full score,140.426340352588,total score,401.97791716996
ID=2, survived: true, class=1," name=""Cumings  Mrs. John Bradley (Florence Briggs Thayer)""", sex=f, age=38, sibsp=1, parch=0, fare=71, embarked:C, score,33.2571974189238,Full score,19.6347483105049,total score,46.8796465273427
ID=45, survived: true, class=3," name=""Devaney  Miss. Margaret Delia""", sex=f, age=19, sibsp=0, parch=0, fare=7, embarked:Q, score,35.9904786806492,Full score,293.797462278168,total score,830.77069233146
ID=12, survived: true, class=1," name=""Bonnell  Miss. Elizabeth""", sex=f, age=58, sibsp=0, parch=0, fare=26, embarked:S, score,36.4628208587924,Full score,67.1042248851402,total score,228.134537373681
ID=40, survived: true, class=3," name=""Nicola-Yarred  Miss. Jamila""", sex=f, age=14, sibsp=1, parch=0, fare=11, embarked:C, score,36.6420039931113,Full score,229.178571566613,total score,723.447453585357
ID=44, survived: true, class=2," name=""Laroche  Miss. Simonne Marie Anne Andree""", sex=f, age=3, sibsp=1, parch=2, fare=41, embarked:C, score,39.9805860481796,Full score,277.806983597519,total score,794.78021365081
