1,6883.0
2,6400.0
3,6484.0
4,6516.0
5,6535.0
6,6571.0
7,6580.0
8,6614.0
9,6614.0
10,6638.0
11,6659.0
12,6682.0
13,6711.0
14,6766.0
15,6766.0
16,6777.0
17,6777.0
18,6777.0
19,6786.0
20,6791.0
21,6823.0
22,6823.0
23,6823.0
24,6828.0
25,6831.0
26,6833.0
27,6834.0
28,6839.0
29,6844.0
30,6855.0
31,6864.0
32,6864.0
33,6864.0
34,6864.0
35,6864.0
36,6864.0
37,6864.0
38,6864.0
39,6864.0
40,6864.0
41,6864.0
42,6864.0
43,6864.0
44,6864.0
45,6864.0
46,6864.0
47,6864.0
48,6864.0
49,6864.0
50,6864.0
51,6866.0
52,6866.0
53,6866.0
54,6866.0
55,6869.0
56,6869.0
57,6869.0
58,6869.0
59,6869.0
60,6869.0
61,6869.0
62,6869.0
63,6869.0
64,6869.0
65,6869.0
66,6869.0
67,6869.0
68,6869.0
69,6872.0
70,6872.0
71,6872.0
72,6872.0
73,6872.0
74,6872.0
75,6895.0
76,6895.0
77,6911.0
78,6925.0
79,6925.0
80,6925.0
81,6925.0
82,6925.0
83,6925.0
84,6925.0
85,6929.0
86,6929.0
87,6929.0
88,6929.0
89,6929.0
90,6935.0
91,6935.0
92,6935.0
93,6952.0
94,7000.0
95,7000.0
96,7041.0
97,7041.0
98,7041.0
99,7051.0
100,7051.0
101,7051.0
102,7051.0
103,7051.0
104,7051.0
105,7051.0
106,7051.0
107,7055.0
108,7055.0
109,7055.0
110,7055.0
111,7073.0
112,7073.0
113,7073.0
114,7073.0
115,7073.0
116,7073.0
117,7073.0
118,7073.0
119,7073.0
120,7073.0
121,7073.0
122,7073.0
123,7073.0
124,7073.0
125,7073.0
126,7073.0
127,7073.0
128,7073.0
129,7073.0
130,7073.0
131,7073.0
132,7073.0
133,7074.0
134,7074.0
135,7074.0
136,7074.0
137,7074.0
138,7074.0
139,7074.0
140,7074.0
141,7074.0
142,7074.0
143,7075.0
144,7075.0
145,7075.0
146,7075.0
147,7075.0
148,7075.0
149,7075.0
150,7075.0
151,7075.0
152,7075.0
153,7075.0
154,7075.0
155,7075.0
156,7075.0
157,7075.0
158,7075.0
159,7075.0
160,7075.0
161,7075.0
162,7075.0
163,7075.0
164,7076.0
165,7076.0
166,7076.0
167,7076.0
168,7076.0
169,7076.0
170,7076.0
171,7076.0
172,7076.0
173,7076.0
174,7076.0
175,7076.0
176,7076.0
177,7076.0
178,7076.0
179,7076.0
180,7076.0
181,7076.0
182,7076.0
183,7076.0
184,7076.0
185,7076.0
186,7076.0
187,7076.0
188,7076.0
189,7076.0
190,7076.0
191,7076.0
192,7076.0
193,7076.0
194,7076.0
195,7076.0
196,7076.0
197,7076.0
198,7076.0
199,7076.0
200,7076.0
201,7076.0
202,7076.0
203,7076.0
204,7076.0
205,7076.0
206,7076.0
207,7076.0
208,7076.0
209,7076.0
210,7076.0
211,7076.0
212,7088.0
213,7088.0
214,7088.0
215,7088.0
216,7088.0
217,7089.0
218,7089.0
219,7090.0
220,7090.0
221,7090.0
222,7090.0
223,7090.0
224,7090.0
225,7090.0
226,7090.0
227,7090.0
228,7090.0
229,7090.0
230,7090.0
231,7090.0
232,7090.0
233,7090.0
234,7090.0
235,7091.0
236,7091.0
237,7091.0
238,7091.0
239,7091.0
240,7091.0
241,7091.0
242,7091.0
243,7091.0
244,7091.0
245,7091.0
246,7091.0
247,7091.0
248,7092.0
249,7092.0
250,7092.0
251,7092.0
252,7092.0
253,7092.0
254,7092.0
255,7106.0
256,7106.0
257,7106.0
258,7106.0
259,7106.0
260,7106.0
261,7106.0
262,7106.0
263,7106.0
264,7106.0
265,7106.0
266,7108.0
267,7108.0
268,7108.0
269,7108.0
270,7108.0
271,7108.0
272,7108.0
273,7108.0
274,7108.0
275,7108.0
276,7108.0
277,7108.0
278,7108.0
279,7108.0
280,7108.0
281,7108.0
282,7108.0
283,7108.0
284,7108.0
285,7108.0
286,7108.0
287,7108.0
288,7108.0
289,7108.0
290,7108.0
291,7108.0
292,7108.0
293,7108.0
294,7108.0
295,7108.0
296,7108.0
297,7108.0
298,7108.0
299,7108.0
300,7108.0
301,7108.0
302,7108.0
303,7108.0
304,7108.0
305,7108.0
306,7108.0
307,7108.0
308,7108.0
309,7108.0
310,7108.0
311,7108.0
312,7108.0
313,7108.0
314,7108.0
315,7108.0
316,7108.0
317,7108.0
318,7108.0
319,7108.0
320,7108.0
321,7108.0
322,7108.0
323,7108.0
324,7108.0
325,7108.0
326,7108.0
327,7108.0
328,7108.0
329,7108.0
330,7108.0
331,7108.0
332,7108.0
333,7108.0
334,7108.0
335,7108.0
336,7108.0
337,7108.0
338,7108.0
339,7108.0
340,7108.0
341,7108.0
342,7108.0
343,7108.0
344,7108.0
345,7108.0
346,7108.0
347,7109.0
348,7109.0
349,7109.0
350,7109.0
351,7109.0
352,7109.0
353,7110.0
354,7110.0
355,7110.0
356,7110.0
357,7110.0
358,7110.0
359,7110.0
360,7110.0
361,7110.0
362,7110.0
363,7110.0
364,7110.0
365,7110.0
366,7110.0
367,7110.0
368,7110.0
369,7110.0
370,7110.0
371,7110.0
372,7110.0
373,7110.0
374,7110.0
375,7110.0
376,7110.0
377,7110.0
378,7110.0
379,7110.0
380,7110.0
381,7110.0
382,7110.0
383,7110.0
384,7110.0
385,7110.0
386,7110.0
387,7110.0
388,7110.0
389,7110.0
390,7110.0
391,7110.0
392,7110.0
393,7110.0
394,7110.0
395,7110.0
396,7110.0
397,7110.0
398,7110.0
399,7110.0
400,7110.0
401,7110.0
402,7110.0
403,7110.0
404,7110.0
405,7110.0
406,7110.0
407,7110.0
408,7110.0
409,7110.0
410,7110.0
411,7110.0
412,7110.0
413,7110.0
414,7110.0
415,7110.0
416,7110.0
417,7110.0
418,7110.0
419,7110.0
420,7110.0
421,7110.0
422,7110.0
423,7110.0
424,7110.0
425,7110.0
426,7110.0
427,7110.0
428,7110.0
429,7110.0
430,7110.0
431,7110.0
432,7110.0
433,7110.0
434,7110.0
435,7110.0
436,7110.0
437,7110.0
438,7110.0
439,7110.0
440,7110.0
441,7110.0
442,7110.0
443,7110.0
444,7110.0
445,7110.0
446,7110.0
447,7110.0
448,7110.0
449,7110.0
450,7110.0
451,7110.0
452,7110.0
453,7110.0
454,7110.0
455,7110.0
456,7110.0
457,7110.0
458,7110.0
459,7110.0
460,7110.0
461,7110.0
462,7110.0
463,7110.0
464,7110.0
465,7110.0
466,7110.0
467,7110.0
468,7110.0
469,7110.0
470,7110.0
471,7110.0
472,7110.0
473,7110.0
474,7110.0
475,7110.0
476,7110.0
477,7110.0
478,7110.0
479,7110.0
480,7110.0
481,7110.0
482,7110.0
483,7110.0
484,7110.0
485,7110.0
486,7110.0
487,7110.0
488,7110.0
489,7110.0
490,7110.0
491,7110.0
492,7110.0
493,7110.0
494,7110.0
495,7110.0
496,7110.0
497,7110.0
498,7110.0
499,7110.0
500,7110.0
501,7110.0
502,7110.0
503,7110.0
504,7110.0
505,7110.0
506,7110.0
507,7110.0
508,7110.0
509,7110.0
510,7110.0
511,7110.0
512,7110.0
513,7110.0
514,7110.0
515,7110.0
516,7110.0
517,7110.0
518,7110.0
519,7110.0
520,7110.0
521,7110.0
522,7110.0
523,7110.0
524,7110.0
525,7110.0
526,7110.0
527,7110.0
528,7110.0
529,7110.0
530,7110.0
531,7110.0
532,7110.0
533,7110.0
534,7110.0
535,7110.0
536,7110.0
537,7110.0
538,7110.0
539,7110.0
540,7110.0
541,7110.0
542,7110.0
543,7110.0
544,7110.0
545,7110.0
546,7110.0
547,7110.0
548,7110.0
549,7110.0
550,7110.0
551,7110.0
552,7110.0
553,7110.0
554,7110.0
555,7110.0
556,7110.0
557,7110.0
558,7110.0
559,7110.0
560,7110.0
561,7110.0
562,7110.0
563,7110.0
564,7110.0
565,7110.0
566,7110.0
567,7110.0
568,7110.0
569,7110.0
570,7110.0
571,7110.0
572,7110.0
573,7110.0
574,7110.0
575,7110.0
576,7110.0
577,7110.0
578,7110.0
579,7110.0
580,7110.0
581,7110.0
582,7110.0
583,7110.0
584,7110.0
585,7110.0
586,7110.0
587,7110.0
588,7110.0
589,7110.0
590,7110.0
591,7110.0
592,7110.0
593,7110.0
594,7110.0
595,7110.0
596,7110.0
597,7110.0
598,7110.0
599,7110.0
600,7110.0
601,7110.0
602,7110.0
603,7110.0
604,7110.0
605,7110.0
606,7110.0
607,7110.0
608,7110.0
609,7110.0
610,7110.0
611,7110.0
612,7110.0
613,7110.0
614,7110.0
615,7110.0
616,7110.0
617,7110.0
618,7110.0
619,7110.0
620,7110.0
621,7110.0
622,7110.0
623,7110.0
624,7110.0
625,7110.0
626,7110.0
627,7110.0
628,7110.0
629,7110.0
630,7110.0
631,7110.0
632,7110.0
633,7110.0
634,7110.0
635,7110.0
636,7110.0
637,7110.0
638,7110.0
639,7110.0
640,7110.0
641,7110.0
642,7110.0
643,7110.0
644,7110.0
645,7110.0
646,7110.0
647,7110.0
648,7110.0
649,7110.0
650,7110.0
651,7110.0
652,7110.0
653,7110.0
654,7110.0
655,7110.0
656,7110.0
657,7110.0
658,7110.0
659,7110.0
660,7110.0
661,7110.0
662,7110.0
663,7110.0
664,7110.0
665,7110.0
666,7110.0
667,7110.0
668,7110.0
669,7110.0
670,7110.0
671,7110.0
672,7110.0
673,7110.0
674,7110.0
675,7110.0
676,7110.0
677,7110.0
678,7110.0
679,7110.0
680,7110.0
681,7110.0
682,7110.0
683,7110.0
684,7110.0
685,7110.0
686,7110.0
687,7110.0
688,7110.0
689,7110.0
690,7110.0
691,7110.0
692,7110.0
693,7110.0
694,7110.0
695,7110.0
696,7110.0
697,7110.0
698,7110.0
699,7110.0
700,7110.0
701,7110.0
702,7110.0
703,7110.0
704,7110.0
705,7110.0
706,7110.0
707,7110.0
708,7110.0
709,7110.0
710,7110.0
711,7110.0
712,7110.0
713,7110.0
714,7110.0
715,7110.0
716,7110.0
717,7110.0
718,7110.0
719,7110.0
720,7110.0
721,7110.0
722,7110.0
723,7110.0
724,7110.0
725,7110.0
726,7110.0
727,7110.0
728,7110.0
729,7110.0
730,7110.0
731,7110.0
732,7110.0
733,7110.0
734,7110.0
735,7110.0
736,7110.0
737,7110.0
738,7110.0
739,7110.0
740,7110.0
741,7110.0
742,7110.0
743,7110.0
744,7110.0
745,7110.0
746,7110.0
747,7110.0
748,7110.0
749,7110.0
750,7110.0
751,7110.0
752,7110.0
753,7110.0
754,7110.0
755,7110.0
756,7110.0
757,7110.0
758,7110.0
759,7110.0
760,7110.0
761,7110.0
762,7110.0
763,7110.0
764,7110.0
765,7110.0
766,7110.0
767,7110.0
768,7110.0
769,7110.0
770,7110.0
771,7110.0
772,7110.0
773,7110.0
774,7110.0
775,7110.0
776,7110.0
777,7110.0
778,7110.0
779,7110.0
780,7110.0
781,7110.0
782,7110.0
783,7110.0
784,7110.0
785,7110.0
786,7110.0
787,7110.0
788,7110.0
789,7110.0
790,7110.0
791,7110.0
792,7110.0
793,7110.0
794,7110.0
795,7110.0
796,7110.0
797,7110.0
798,7110.0
799,7110.0
800,7110.0
801,7110.0
802,7110.0
803,7110.0
804,7110.0
805,7110.0
806,7110.0
807,7110.0
808,7110.0
809,7110.0
810,7110.0
811,7110.0
812,7110.0
813,7110.0
814,7110.0
815,7110.0
816,7110.0
817,7110.0
818,7110.0
819,7110.0
820,7110.0
821,7110.0
822,7110.0
823,7110.0
824,7110.0
825,7110.0
826,7110.0
827,7110.0
828,7110.0
829,7110.0
830,7110.0
831,7110.0
832,7110.0
833,7110.0
834,7110.0
835,7110.0
836,7110.0
837,7110.0
838,7110.0
839,7110.0
840,7110.0
841,7110.0
842,7110.0
843,7110.0
844,7110.0
845,7110.0
846,7110.0
847,7110.0
848,7110.0
849,7110.0
850,7110.0
851,7110.0
852,7110.0
853,7110.0
854,7110.0
855,7110.0
856,7110.0
857,7110.0
858,7110.0
859,7110.0
860,7110.0
861,7110.0
862,7110.0
863,7110.0
864,7110.0
865,7110.0
866,7110.0
867,7110.0
868,7110.0
869,7110.0
870,7110.0
871,7110.0
872,7110.0
873,7110.0
874,7110.0
875,7110.0
876,7110.0
877,7110.0
878,7110.0
879,7110.0
880,7110.0
881,7110.0
882,7110.0
883,7110.0
884,7110.0
885,7110.0
886,7110.0
887,7110.0
888,7110.0
889,7110.0
890,7110.0
891,7110.0
892,7110.0
893,7110.0
894,7110.0
895,7110.0
896,7110.0
897,7110.0
898,7110.0
899,7110.0
900,7110.0
901,7110.0
902,7110.0
903,7110.0
904,7110.0
905,7110.0
906,7110.0
907,7110.0
908,7110.0
909,7110.0
910,7110.0
911,7110.0
912,7110.0
913,7110.0
914,7110.0
915,7110.0
916,7110.0
917,7110.0
918,7110.0
919,7110.0
920,7110.0
921,7110.0
922,7110.0
923,7110.0
924,7110.0
925,7110.0
926,7110.0
927,7110.0
928,7110.0
929,7110.0
930,7110.0
931,7110.0
932,7110.0
933,7110.0
934,7110.0
935,7110.0
936,7110.0
937,7110.0
938,7110.0
939,7110.0
940,7110.0
941,7110.0
942,7110.0
943,7110.0
944,7110.0
945,7110.0
946,7110.0
947,7110.0
948,7110.0
949,7110.0
950,7110.0
951,7110.0
952,7110.0
953,7110.0
954,7110.0
955,7110.0
956,7110.0
957,7110.0
958,7110.0
959,7110.0
960,7110.0
961,7110.0
962,7110.0
963,7110.0
964,7110.0
965,7110.0
966,7110.0
967,7110.0
968,7110.0
969,7110.0
970,7110.0
971,7110.0
972,7110.0
973,7110.0
974,7110.0
975,7110.0
976,7110.0
977,7110.0
978,7110.0
979,7110.0
980,7110.0
981,7110.0
982,7110.0
983,7110.0
984,7110.0
985,7110.0
986,7110.0
987,7110.0
988,7110.0
989,7110.0
990,7110.0
991,7110.0
992,7110.0
993,7110.0
994,7110.0
995,7110.0
996,7110.0
997,7110.0
998,7110.0
999,7110.0
1000,7110.0
1001,7110.0
1002,7110.0
1003,7110.0
1004,7110.0
1005,7110.0
1006,7110.0
1007,7110.0
1008,7110.0
1009,7110.0
1010,7110.0
1011,7110.0
1012,7110.0
1013,7110.0
1014,7110.0
1015,7110.0
1016,7110.0
1017,7110.0
1018,7110.0
1019,7110.0
1020,7110.0
1021,7110.0
1022,7110.0
1023,7110.0
1024,7110.0
1025,7110.0
1026,7110.0
1027,7110.0
1028,7110.0
1029,7110.0
1030,7110.0
1031,7110.0
1032,7110.0
1033,7110.0
1034,7110.0
1035,7110.0
1036,7110.0
1037,7110.0
1038,7110.0
1039,7110.0
1040,7110.0
1041,7110.0
1042,7110.0
1043,7110.0
1044,7110.0
1045,7110.0
1046,7110.0
1047,7110.0
1048,7110.0
1049,7110.0
1050,7110.0
1051,7110.0
1052,7110.0
1053,7110.0
1054,7110.0
1055,7110.0
1056,7110.0
1057,7110.0
1058,7110.0
1059,7110.0
1060,7110.0
1061,7110.0
1062,7110.0
1063,7110.0
1064,7110.0
1065,7110.0
1066,7110.0
1067,7110.0
1068,7110.0
1069,7110.0
1070,7110.0
1071,7110.0
1072,7110.0
1073,7110.0
1074,7110.0
1075,7110.0
1076,7110.0
1077,7110.0
1078,7110.0
1079,7254.0
1080,7254.0
1081,8490.0
1082,9066.0
1083,9269.0
1084,10139.0
1085,11103.0
1086,11223.0
1087,11623.0
1088,11712.0
1089,11967.0
1090,12180.0
1091,12180.0
1092,12184.0
1093,12210.0
1094,12225.0
1095,12262.0
1096,12279.0
1097,12304.0
1098,12331.0
1099,12378.0
1100,12403.0
1101,12437.0
1102,12440.0
1103,12527.0
1104,12527.0
1105,12539.0
1106,12554.0
1107,12577.0
1108,12605.0
1109,12609.0
1110,12614.0
1111,12615.0
1112,12625.0
1113,12625.0
1114,12629.0
1115,12629.0
1116,12630.0
1117,12636.0
1118,12636.0
1119,12642.0
1120,12643.0
1121,12648.0
1122,12648.0
1123,12655.0
1124,12661.0
1125,12664.0
1126,12670.0
1127,12673.0
1128,12679.0
1129,12682.0
1130,12687.0
1131,12688.0
1132,12690.0
1133,12691.0
1134,12693.0
1135,12696.0
1136,12696.0
1137,12696.0
1138,12697.0
1139,12698.0
1140,12698.0
1141,12699.0
1142,12700.0
1143,12702.0
1144,12702.0
1145,12706.0
1146,12709.0
1147,12711.0
1148,12711.0
1149,12713.0
1150,12714.0
1151,12714.0
1152,12716.0
1153,12716.0
1154,12717.0
1155,12719.0
1156,12719.0
1157,12721.0
1158,12721.0
1159,12724.0
1160,12725.0
1161,12726.0
1162,12729.0
1163,12732.0
1164,12732.0
1165,12732.0
1166,12734.0
1167,12735.0
1168,12737.0
1169,12738.0
1170,12738.0
1171,12739.0
1172,12741.0
1173,12741.0
1174,12742.0
1175,12743.0
1176,12743.0
1177,12743.0
1178,12744.0
1179,12744.0
1180,12744.0
1181,12744.0
1182,12744.0
1183,12744.0
1184,12744.0
1185,12744.0
1186,12744.0
1187,12747.0
1188,12747.0
1189,12747.0
1190,12748.0
1191,12748.0
1192,12748.0
1193,12748.0
1194,12748.0
1195,12748.0
1196,12749.0
1197,12750.0
1198,12750.0
1199,12751.0
1200,12751.0
1201,12751.0
1202,12751.0
1203,12752.0
1204,12752.0
1205,12752.0
1206,12752.0
1207,12752.0
1208,12752.0
1209,12752.0
1210,12753.0
